{
	"source": "UE",
	"applications": [
		{
			"app_key": "application.generated.ue.avr-15973114.ue4editor.exe",
			"launch_type": "url",
			"url": "steam://launch/",
			"action_manifest_path": "C:/Users/janwe/Documents/Unreal Projects/vr-music-experience/Config/SteamVRBindings/steamvr_manifest.json",
			"strings":
			{
				"en_us":
				{
					"name": "AVR-15973114 [UE Editor]"
				}
			}
		}
	]
}